module gitlab.com/fabmation-gmbh/rook-ceph-rgw-exporter

go 1.21.0

require (
	github.com/imroc/req/v3 v3.42.0
	github.com/prometheus/client_golang v1.17.0
	go.opentelemetry.io/otel v1.19.0
	go.opentelemetry.io/otel/exporters/prometheus v0.42.0
	go.opentelemetry.io/otel/metric v1.19.0
	go.opentelemetry.io/otel/sdk/metric v1.19.0
)

require (
	github.com/andybalholm/brotli v1.0.5 // indirect
	github.com/beorn7/perks v1.0.1 // indirect
	github.com/cespare/xxhash/v2 v2.2.0 // indirect
	github.com/cloudflare/circl v1.3.3 // indirect
	github.com/gaukas/godicttls v0.0.4 // indirect
	github.com/go-logr/logr v1.2.4 // indirect
	github.com/go-logr/stdr v1.2.2 // indirect
	github.com/go-task/slim-sprig v0.0.0-20230315185526-52ccab3ef572 // indirect
	github.com/golang/protobuf v1.5.3 // indirect
	github.com/google/pprof v0.0.0-20230926050212-f7f687d19a98 // indirect
	github.com/hashicorp/errwrap v1.1.0 // indirect
	github.com/hashicorp/go-multierror v1.1.1 // indirect
	github.com/klauspost/compress v1.17.0 // indirect
	github.com/matttproud/golang_protobuf_extensions v1.0.4 // indirect
	github.com/onsi/ginkgo/v2 v2.12.1 // indirect
	github.com/prometheus/client_model v0.4.1-0.20230718164431-9a2bf3000d16 // indirect
	github.com/prometheus/common v0.44.0 // indirect
	github.com/prometheus/procfs v0.11.1 // indirect
	github.com/quic-go/qpack v0.4.0 // indirect
	github.com/quic-go/qtls-go1-20 v0.3.4 // indirect
	github.com/quic-go/quic-go v0.39.0 // indirect
	github.com/refraction-networking/utls v1.5.3 // indirect
	go.opentelemetry.io/otel/sdk v1.19.0 // indirect
	go.opentelemetry.io/otel/trace v1.19.0 // indirect
	go.uber.org/mock v0.3.0 // indirect
	golang.org/x/crypto v0.13.0 // indirect
	golang.org/x/exp v0.0.0-20230905200255-921286631fa9 // indirect
	golang.org/x/mod v0.12.0 // indirect
	golang.org/x/net v0.15.0 // indirect
	golang.org/x/sys v0.12.0 // indirect
	golang.org/x/text v0.13.0 // indirect
	golang.org/x/tools v0.13.0 // indirect
	google.golang.org/protobuf v1.31.0 // indirect
)
